<svg xmlns="http://www.w3.org/2000/svg" width="99" height="99" viewBox="0 0 99 99">
    <path fill="#000" stroke="#000" stroke-width="4" d="M49.5 2C36.69 2 24.802 7.026 15.914 15.914 7.026 24.802 2 36.69 2 49.5c0 12.81 5.026 24.698 13.914 33.586C24.802 91.974 36.69 97 49.5 97c12.81 0 24.698-5.026 33.586-13.914C91.974 74.198 97 62.31 97 49.5c0-12.81-5.026-24.698-13.914-33.586C74.198 7.026 62.31 2 49.5 2z"/>
    <path fill="#FFF" d="M53.3 39.4v-4.1c0-1.9 1.3-2.4 2.2-2.4h5.7v-8.7h-7.8c-8.7 0-10.6 6.4-10.6 10.6v4.6h-5v10.1h5.1v25.3H53V49.5h7.5l.3-4 .6-6.1h-8.1z"/>
</svg>
