<?xml version="1.0" encoding="utf-8"?>
<!-- Generator: Adobe Illustrator 22.1.0, SVG Export Plug-In . SVG Version: 6.00 Build 0)  -->
<svg version="1.1" id="Layer_1" xmlns="http://www.w3.org/2000/svg" xmlns:xlink="http://www.w3.org/1999/xlink" x="0px" y="0px"
	 viewBox="0 0 90 62.6" style="enable-background:new 0 0 90 62.6;" xml:space="preserve">
<g>
	<path d="M90,2.1c0-0.2,0-0.5-0.1-0.7c0,0,0-0.1,0-0.1c0-0.1-0.1-0.1-0.1-0.2c-0.1-0.2-0.2-0.3-0.3-0.4c-0.1-0.1-0.1-0.1-0.2-0.2
		c-0.1-0.1-0.3-0.2-0.4-0.3c-0.1,0-0.1-0.1-0.2-0.1C88.4,0.1,88.1,0,87.9,0H2.1C1.9,0,1.6,0.1,1.4,0.2c-0.1,0-0.1,0.1-0.2,0.1
		C1,0.3,0.9,0.4,0.7,0.5C0.7,0.6,0.6,0.7,0.6,0.7C0.4,0.9,0.3,1,0.3,1.2c0,0.1-0.1,0.1-0.1,0.2c0,0,0,0,0,0.1C0,1.7,0,1.9,0,2.1
		c0,0,0,0,0,0v58.4c0,1.2,1,2.1,2.1,2.1h85.7c1.2,0,2.1-1,2.1-2.1L90,2.1C90,2.1,90,2.1,90,2.1z M4.3,58.4V6.5l39.4,30.1
		c0.4,0.3,0.8,0.4,1.3,0.4s0.9-0.1,1.3-0.4L85.7,6.5v51.9L4.3,58.4L4.3,58.4z M45,32.2L8.5,4.3h73.1L45,32.2z"/>
</g>
</svg>
